[api-updater (non-obsolete-error-filter)] 23/09/2021 6:11:51 a. m. : Starting C:/Program Files/Unity/Hub/Editor/2020.3.16f1/Editor/Data/Tools/ScriptUpdater/APIUpdater.NonObsoleteApiUpdaterDetector.exe
[api-updater (non-obsolete-error-filter)] 
----------------------------------
jit/startup time      : 426.2443ms
moved types parse time: 51ms
candidates parse time : 1ms
C# parse time         : 264ms
candidates check time : 30ms
console write time    : 0ms

